{
"apl":"18.2",
"bash":"GNU bash, version 5.2.15(1)-release (x86_64-alpine-linux-musl)",
"bqn":"CBQN git 0d2631a2",
"c":"gcc (Alpine 13.2.1_git20231014) 13.2.1 20231014",
"clojure":"Clojure 1.12.0-master-SNAPSHOT",
"cobol":"cobc (GnuCOBOL) 3.1.2.0",
"cpp":"Alpine clang version 17.0.4",
"csharp":" Version:   7.0.404",
"dc":"1.07",
"elixir":"Elixir 1.17.0-dev (df66d88) (compiled with Erlang/OTP 25)",
"erlang":"25.3.2.7",
"fig":"1.9.0/Fig-1.9.0.jar",
"fortran":"GNU Fortran (Alpine 13.2.1_git20231014) 13.2.1 20231014",
"fsharp":" Version:   7.0.404",
"go":"go version go1.21.4 linux/amd64",
"golfscript":"https://github.com/darrenks/golfscript cded542533c2c8f72ab2d5935714f739b0357690",
"haskell":"The Glorious Glasgow Haskell Compilation System, version 9.8.1",
"j":"j903",
"java":"openjdk 17.0.9 2023-10-17",
"jelly":"github.com/DennisMitchell/jellylanguage.git 70c9fd93ab009c05dc396f8cc091f72b212fb188",
"julia":"julia version 1.9.3",
"k":"github.com/kevinlawler/kona.git 2f1552eceeae536519b734a8393e607df0279f0d",
"kotlin":"info: kotlinc-jvm 1.9.20 (JRE 21.0.1+12-alpine-r0)",
"lua":"Lua 5.4.6  Copyright (C) 1994-2023 Lua.org, PUC-Rio",
"node":"18.18.2",
"ocaml":"4.14.1",
"perl":"This is perl 5, version 38, subversion 0 (v5.38.0) built for x86_64-linux-thread-multi",
"php":"PHP 8.1.10-dev (cli) (built: Nov 18 2023 12:17:35) (NTS)",
"powershell":"PowerShell 7.2.4",
"prolog":"SWI-Prolog version 8.4.3 for x86_64-linux",
"python":"3.11.6",
"r":"R version 4.3.1 (2023-06-16) -- 'Beagle Scouts'",
"raku":"Welcome to Rakudo v2023.10.",
"ruby":"ruby 3.2.2 (2023-03-30 revision e51014f9c0) [x86_64-linux-musl]",
"rust":" 1.71.1 (eb26296b5 2023-08-03) (Alpine Linux)",
"scala":" 3.3.1",
"vyxal":"2.22.0",
"zsh":"zsh 5.9 (x86_64-alpine-linux-musl)",
}
